type,time,latitude,longitude,alt
t,2015-11-28 04:09:25,36.36600416,127.36041244,66.0
t,2015-11-28 04:09:35,36.36595386,127.36031114,64.0
t,2015-11-28 04:09:45,36.36590916,127.36021614,65.0
t,2015-11-28 04:09:55,36.36586478,127.36011696,67.0
t,2015-11-28 04:10:05,36.36579663,127.36002722,66.0
t,2015-11-28 04:10:15,36.36570409,127.35998455,70.0
t,2015-11-28 04:10:25,36.36560707,127.35994226,69.0
t,2015-11-28 04:10:35,36.36552896,127.3598811,70.0
t,2015-11-28 04:10:45,36.36547395,127.35980109,72.0
t,2015-11-28 04:10:55,36.36542037,127.35970035,74.0
t,2015-11-28 04:11:05,36.36535176,127.35959199,73.0
t,2015-11-28 04:11:15,36.36528471,127.35947734,72.0
t,2015-11-28 04:11:25,36.3652399,127.35936605,69.0
t,2015-11-28 04:11:35,36.36519805,127.35924921,69.0
t,2015-11-28 04:11:45,36.36517683,127.35911866,72.0
t,2015-11-28 04:11:56,36.36511731,127.35899998,71.0
t,2015-11-28 04:12:15,36.3650038,127.35878051,71.0
t,2015-11-28 04:12:25,36.36495214,127.35867714,72.0
t,2015-11-28 04:12:35,36.36488104,127.35858536,74.0
t,2015-11-28 04:12:45,36.36482923,127.35859392,74.0
t,2015-11-28 04:12:55,36.36472346,127.35863399,74.0
t,2015-11-28 04:13:05,36.36458982,127.35866688,79.0
t,2015-11-28 04:13:15,36.36448385,127.35869991,81.0
t,2015-11-28 04:13:25,36.36440836,127.35870452,81.0
t,2015-11-28 04:13:35,36.36434809,127.35875096,81.0
t,2015-11-28 04:13:45,36.36432273,127.35877946,83.0
t,2015-11-28 04:13:55,36.36431599,127.3587863,82.0
t,2015-11-28 04:14:05,36.3643254,127.35880373,75.0
t,2015-11-28 04:14:15,36.3643184,127.35882514,74.0
t,2015-11-28 04:14:25,36.36431905,127.35882577,71.0
t,2015-11-28 04:14:35,36.36430722,127.358822,71.0
t,2015-11-28 04:14:46,36.36429886,127.35883419,73.0
t,2015-11-28 04:14:56,36.36429198,127.358839,73.0
t,2015-11-28 04:15:06,36.36428968,127.35883584,72.0
t,2015-11-28 04:23:37,36.36439188,127.35869481,74.0
t,2015-11-28 04:23:56,36.36432286,127.35880433,70.0
t,2015-11-28 04:24:16,36.3643258,127.35878459,66.0
t,2015-11-28 04:24:26,36.36432464,127.35876699,69.0
t,2015-11-28 04:24:36,36.36430453,127.3587968,68.0
t,2015-11-28 04:24:46,36.36430978,127.35881728,68.0
t,2015-11-28 04:24:56,36.36429914,127.3588409,57.0
t,2015-11-28 04:25:06,36.36429171,127.35885482,61.0
t,2015-11-28 04:25:16,36.36431363,127.35885088,65.0
t,2015-11-28 04:25:26,36.36435554,127.35884232,72.0
t,2015-11-28 04:25:36,36.36435331,127.35884473,72.0
t,2015-11-28 04:25:46,36.36434416,127.35885519,73.0
t,2015-11-28 04:25:56,36.36429483,127.35885259,70.0
t,2015-11-28 04:26:16,36.36412377,127.35873781,70.0
t,2015-11-28 04:26:26,36.36406747,127.35864749,72.0
t,2015-11-28 04:26:36,36.36405501,127.35851513,70.0
t,2015-11-28 04:26:46,36.36399967,127.35844345,80.0
t,2015-11-28 04:26:56,36.36385973,127.35840248,84.0
t,2015-11-28 04:27:16,36.36377511,127.35826384,80.0
t,2015-11-28 04:27:26,36.36374094,127.35820381,81.0
t,2015-11-28 04:27:36,36.36367293,127.35808344,79.0
t,2015-11-28 04:27:46,36.36363591,127.35797065,89.0
t,2015-11-28 04:27:56,36.36357251,127.3579216,84.0
t,2015-11-28 04:28:06,36.36349469,127.35784839,77.0
t,2015-11-28 04:28:16,36.36342309,127.35777158,79.0
t,2015-11-28 04:28:26,36.3633706,127.3576594,81.0
t,2015-11-28 04:28:36,36.36334694,127.3575289,81.0
t,2015-11-28 04:28:56,36.36325094,127.3573816,86.0
t,2015-11-28 04:29:06,36.36328974,127.35740582,87.0
t,2015-11-28 04:29:16,36.36318595,127.35745792,81.0
t,2015-11-28 04:29:36,36.36292328,127.35755151,81.0
t,2015-11-28 04:29:46,36.36285065,127.3575867,78.0
t,2015-11-28 04:30:06,36.36287132,127.35756111,84.0
t,2015-11-28 04:30:26,36.3628518,127.35757723,82.0
t,2015-11-28 04:30:36,36.36285983,127.35755903,80.0
t,2015-11-28 04:30:46,36.3629069,127.35762699,85.0
t,2015-11-28 04:30:56,36.36282771,127.35771104,94.0
t,2015-11-28 04:31:06,36.36279361,127.35773547,105.0
t,2015-11-28 04:31:16,36.36275398,127.35768936,103.0
t,2015-11-28 04:31:36,36.36277159,127.35765499,100.0
t,2015-11-28 04:31:56,36.36284533,127.35768234,95.0
t,2015-11-28 04:32:06,36.36299244,127.35781738,85.0
t,2015-11-28 04:32:17,36.36303605,127.35791844,82.0
t,2015-11-28 04:32:28,36.36303638,127.35791947,79.0
t,2015-11-28 04:32:40,36.36303637,127.35791944,80.0
t,2015-11-28 04:33:07,36.36303703,127.35791953,80.0
t,2015-11-28 04:33:27,36.36303881,127.35791941,79.0
t,2015-11-28 04:33:44,36.36304155,127.35792108,80.0
t,2015-11-28 04:34:04,36.3630418,127.35791813,80.0
t,2015-11-28 04:34:21,36.36304239,127.35791654,80.0
t,2015-11-28 04:34:39,36.36304397,127.35791746,81.0
t,2015-11-28 04:34:58,36.36304407,127.3579175,81.0
t,2015-11-28 04:35:08,36.36304451,127.35791694,81.0
t,2015-11-28 04:35:20,36.3630474,127.3579159,82.0
t,2015-11-28 04:35:30,36.36304962,127.35792382,80.0
t,2015-11-28 04:35:40,36.36305345,127.35792587,81.0
t,2015-11-28 04:36:00,36.36305353,127.35792582,81.0
t,2015-11-28 04:36:11,36.36305357,127.35792583,81.0
t,2015-11-28 04:36:21,36.36305357,127.35792577,81.0
t,2015-11-28 04:36:32,36.36305358,127.35792578,81.0
t,2015-11-28 04:36:42,36.36305359,127.3579258,81.0
t,2015-11-28 04:37:01,36.36305359,127.35792579,81.0
t,2015-11-28 05:38:53,36.3629325,127.35801019,84.0
t,2015-11-28 05:39:05,36.36290644,127.35790513,63.0
t,2015-11-28 05:39:24,36.36291649,127.35787148,60.0
t,2015-11-28 05:39:34,36.36297391,127.35785999,63.0
t,2015-11-28 05:39:44,36.36300066,127.35787478,66.0
t,2015-11-28 05:39:54,36.36302791,127.35789993,69.0
t,2015-11-28 05:40:04,36.36305224,127.3579282,73.0
t,2015-11-28 05:40:14,36.36309517,127.35796858,77.0
t,2015-11-28 05:40:24,36.36311529,127.35802994,76.0
t,2015-11-28 05:40:34,36.36314485,127.35808591,77.0
t,2015-11-28 05:40:44,36.36318247,127.35815461,76.0
t,2015-11-28 05:40:54,36.36321355,127.35820482,80.0
t,2015-11-28 05:41:04,36.36324768,127.35825293,86.0
t,2015-11-28 05:41:14,36.36331624,127.35831527,87.0
t,2015-11-28 05:41:24,36.36336091,127.35839345,83.0
t,2015-11-28 05:41:34,36.36340498,127.35849254,79.0
t,2015-11-28 05:41:44,36.36339833,127.35854292,86.0
t,2015-11-28 05:41:54,36.36345208,127.35852253,82.0
t,2015-11-28 05:42:14,36.36356098,127.35850651,79.0
t,2015-11-28 05:42:24,36.3636663,127.35849649,77.0
t,2015-11-28 05:42:34,36.36373236,127.35845605,79.0
t,2015-11-28 05:42:44,36.36380094,127.3584675,73.0
t,2015-11-28 05:42:54,36.36389204,127.35850429,70.0
t,2015-11-28 05:43:04,36.36396376,127.3585622,66.0
t,2015-11-28 05:43:14,36.36401113,127.3586219,64.0
t,2015-11-28 05:43:24,36.36403719,127.35868249,62.0
t,2015-11-28 05:43:34,36.36406664,127.35871192,65.0
t,2015-11-28 05:43:44,36.36411265,127.3587274,67.0
t,2015-11-28 05:43:54,36.36415585,127.35876375,70.0
t,2015-11-28 05:44:04,36.36422371,127.35875224,74.0
t,2015-11-28 05:44:14,36.36431717,127.35875044,75.0
t,2015-11-28 05:44:24,36.36440852,127.35871711,74.0
t,2015-11-28 05:44:34,36.36450088,127.35866689,69.0
t,2015-11-28 05:44:44,36.36458785,127.35862342,67.0
t,2015-11-28 05:44:54,36.36466969,127.35856622,62.0
t,2015-11-28 05:45:04,36.36476168,127.35852271,57.0
t,2015-11-28 05:45:24,36.36493293,127.35841809,57.0
t,2015-11-28 05:45:34,36.36501599,127.35836833,59.0
t,2015-11-28 05:45:44,36.36509101,127.35831403,60.0
t,2015-11-28 05:45:54,36.36517296,127.35825035,60.0
t,2015-11-28 05:46:14,36.36530458,127.35812767,59.0
t,2015-11-28 05:46:24,36.36539686,127.35811715,60.0
t,2015-11-28 05:46:34,36.36546521,127.35806141,65.0
t,2015-11-28 05:46:44,36.36555965,127.35795801,64.0
t,2015-11-28 05:46:54,36.36565419,127.35792103,61.0
t,2015-11-28 05:47:04,36.36573801,127.35787925,61.0
t,2015-11-28 05:47:14,36.36581061,127.35782332,62.0
t,2015-11-28 05:47:25,36.36590766,127.3577677,59.0
t,2015-11-28 05:47:44,36.36609801,127.35766927,58.0
t,2015-11-28 05:47:54,36.36617701,127.35761943,60.0
t,2015-11-28 05:48:14,36.366342,127.357552,64.0
t,2015-11-28 05:48:24,36.36643982,127.35748902,63.0
t,2015-11-28 05:48:34,36.3665501,127.35744366,62.0
t,2015-11-28 05:48:44,36.36664942,127.357398,61.0
t,2015-11-28 05:48:54,36.3667579,127.35734604,60.0
t,2015-11-28 05:49:04,36.36686405,127.35728894,61.0
t,2015-11-28 05:49:14,36.3669642,127.35722531,58.0
t,2015-11-28 05:49:24,36.36705694,127.35715582,58.0
t,2015-11-28 05:49:34,36.36715506,127.35710592,58.0
t,2015-11-28 05:49:44,36.36727211,127.3570966,58.0
t,2015-11-28 05:49:54,36.36734244,127.35699697,58.0
t,2015-11-28 05:50:04,36.36740868,127.35691112,60.0
t,2015-11-28 05:50:14,36.36751001,127.35688458,61.0
t,2015-11-28 05:50:24,36.36759739,127.3568372,62.0
t,2015-11-28 05:50:34,36.36768808,127.35679526,63.0
t,2015-11-28 05:50:44,36.36777289,127.35674595,63.0
t,2015-11-28 05:50:54,36.36785928,127.35669576,64.0
t,2015-11-28 05:51:04,36.36796364,127.35670006,63.0
t,2015-11-28 05:51:14,36.36806344,127.35675134,61.0
t,2015-11-28 05:51:24,36.36813219,127.35681561,63.0
t,2015-11-28 05:51:34,36.36819732,127.35689461,63.0
t,2015-11-28 05:51:44,36.36821539,127.3569204,60.0
t,2015-11-28 05:51:56,36.36824299,127.35693916,59.0
t,2015-11-28 05:52:07,36.36824419,127.35693827,59.0
t,2015-11-28 05:52:17,36.36822729,127.35695089,60.0
t,2015-11-28 05:53:05,36.36822828,127.35695008,60.0
t,2015-11-28 05:53:20,36.36823551,127.35694788,61.0
t,2015-11-28 05:53:38,36.36827826,127.35693362,62.0
t,2015-11-28 05:53:57,36.36827978,127.356933,62.0
t,2015-11-28 05:54:07,36.36828027,127.35693277,62.0
t,2015-11-28 05:54:18,36.36828082,127.3569325,62.0
t,2015-11-28 05:54:37,36.36828177,127.35693199,62.0
t,2015-11-28 05:54:49,36.36828167,127.35693205,62.0
t,2015-11-28 05:55:07,36.36828227,127.35693169,62.0
t,2015-11-28 05:55:18,36.36832896,127.35686283,62.0
t,2015-11-28 05:55:28,36.36831868,127.35686694,68.0
t,2015-11-28 05:55:38,36.3683533,127.35695404,75.0
t,2015-11-28 05:55:48,36.3683544,127.35695761,75.0
t,2015-11-28 05:55:58,36.3683569,127.35696265,75.0
t,2015-11-28 05:56:18,36.36836092,127.35697272,76.0
t,2015-11-28 05:56:38,36.36837609,127.35701795,76.0
t,2015-11-28 05:56:48,36.3684059,127.35715822,83.0
t,2015-11-28 06:27:51,36.36827492,127.35708655,62.0
t,2015-11-28 06:28:06,36.36814961,127.35690681,72.0
t,2015-11-28 06:28:23,36.3681126,127.35680652,74.0
t,2015-11-28 06:28:33,36.36811266,127.3567391,72.0
t,2015-11-28 06:28:52,36.36812001,127.3567533,70.0
t,2015-11-28 06:29:02,36.3681212,127.35676509,69.0
t,2015-11-28 06:29:12,36.36812333,127.35676466,68.0
t,2015-11-28 06:29:22,36.36811568,127.3567542,68.0
t,2015-11-28 06:29:32,36.36811688,127.35675633,67.0
t,2015-11-28 06:29:42,36.36812285,127.35677432,65.0
t,2015-11-28 06:29:52,36.36812,127.35671371,63.0
t,2015-11-28 06:30:02,36.36809316,127.35658844,62.0
t,2015-11-28 06:30:22,36.36816914,127.35637574,66.0
t,2015-11-28 06:30:42,36.36830764,127.35625941,67.0
t,2015-11-28 06:30:52,36.36840085,127.35620449,68.0
t,2015-11-28 06:31:02,36.36846478,127.35612553,65.0
t,2015-11-28 06:31:12,36.36856727,127.35609492,64.0
t,2015-11-28 06:31:22,36.36863376,127.35602835,67.0
t,2015-11-28 06:31:32,36.36871652,127.35597107,68.0
t,2015-11-28 06:31:42,36.36880028,127.35591755,66.0
t,2015-11-28 06:31:52,36.36888292,127.35586209,64.0
t,2015-11-28 06:32:02,36.36897577,127.35581171,65.0
t,2015-11-28 06:32:12,36.36905985,127.35576083,64.0
t,2015-11-28 06:32:23,36.36914567,127.35569344,64.0
t,2015-11-28 06:32:42,36.3693239,127.35560909,63.0
t,2015-11-28 06:32:52,36.36939374,127.35552282,60.0
t,2015-11-28 06:33:02,36.36947519,127.35546774,64.0
t,2015-11-28 06:33:12,36.36955867,127.35541681,62.0
t,2015-11-28 06:33:22,36.36965668,127.35536598,60.0
t,2015-11-28 06:33:42,36.36985561,127.35533111,60.0
t,2015-11-28 06:33:52,36.36995733,127.35529946,59.0
t,2015-11-28 06:34:02,36.37005403,127.35528287,62.0
t,2015-11-28 06:34:12,36.3701468,127.35527064,58.0
t,2015-11-28 06:34:22,36.37024542,127.35523474,59.0
t,2015-11-28 06:34:32,36.37030105,127.35520537,65.0
t,2015-11-28 06:34:42,36.37040211,127.35519124,75.0
t,2015-11-28 06:34:52,36.37051281,127.3552089,76.0
t,2015-11-28 06:35:03,36.37046141,127.35515322,87.0
t,2015-11-28 06:35:22,36.37050547,127.3548718,85.0
t,2015-11-28 06:35:32,36.37049601,127.35476552,83.0
t,2015-11-28 06:35:42,36.37043952,127.35468781,85.0
t,2015-11-28 06:35:52,36.37046446,127.35454218,80.0
t,2015-11-28 06:36:12,36.37052853,127.35430018,74.0
t,2015-11-28 06:36:22,36.37058306,127.35421109,75.0
t,2015-11-28 06:36:32,36.37060689,127.35404696,74.0
t,2015-11-28 06:36:42,36.37058482,127.35393443,78.0
t,2015-11-28 06:36:52,36.37057622,127.35381329,78.0
t,2015-11-28 06:37:02,36.37061967,127.35368388,76.0
t,2015-11-28 06:37:22,36.37065985,127.3535292,83.0
t,2015-11-28 06:37:33,36.3707194,127.35346155,77.0
t,2015-11-28 06:37:52,36.37064371,127.35344669,81.0
t,2015-11-28 06:38:12,36.37045512,127.35343066,81.0
t,2015-11-28 06:38:23,36.37035395,127.35346474,75.0
t,2015-11-28 06:38:42,36.37017015,127.35351286,66.0
t,2015-11-28 06:38:52,36.37010133,127.35354999,65.0
t,2015-11-28 06:39:02,36.37001624,127.35359463,68.0
t,2015-11-28 06:39:12,36.36992838,127.35361319,66.0
t,2015-11-28 06:39:23,36.36982192,127.35363113,66.0
t,2015-11-28 06:39:42,36.36960129,127.3536668,73.0
t,2015-11-28 06:39:52,36.36955232,127.35359365,77.0
t,2015-11-28 06:40:02,36.36944038,127.35354742,74.0
t,2015-11-28 06:40:12,36.36936521,127.35347463,69.0
t,2015-11-28 06:40:22,36.36930488,127.35338567,70.0
t,2015-11-28 06:40:33,36.36922592,127.35324335,73.0
t,2015-11-28 06:40:53,36.36908119,127.35313735,73.0
t,2015-11-28 06:41:12,36.36894455,127.35300467,75.0
t,2015-11-28 06:41:33,36.36904484,127.35300419,68.0
t,2015-11-28 06:41:53,36.36902524,127.35281313,71.0
t,2015-11-28 06:42:12,36.36902834,127.35281651,77.0
t,2015-11-28 06:42:22,36.36897603,127.35271988,82.0
t,2015-11-28 06:42:32,36.36892617,127.35249507,79.0
t,2015-11-28 06:42:42,36.36884288,127.35240026,78.0
t,2015-11-28 06:42:52,36.36872836,127.35233035,76.0
t,2015-11-28 06:43:12,36.36858465,127.35228634,75.0
t,2015-11-28 06:43:22,36.36843923,127.35228603,74.0
t,2015-11-28 06:43:32,36.36830979,127.35229379,72.0
t,2015-11-28 06:43:42,36.36820184,127.35226162,79.0
t,2015-11-28 06:43:52,36.36812434,127.35226615,87.0
t,2015-11-28 06:44:02,36.36802135,127.3522113,80.0
t,2015-11-28 06:44:12,36.36791191,127.35219774,76.0
t,2015-11-28 06:44:22,36.36776881,127.35217286,78.0
t,2015-11-28 06:44:32,36.36766295,127.35215043,73.0
t,2015-11-28 06:44:52,36.36754816,127.35214588,73.0
t,2015-11-28 06:45:03,36.36751721,127.35211612,71.0
t,2015-11-28 06:45:22,36.36737838,127.35212746,67.0
t,2015-11-28 06:45:32,36.36740756,127.35212036,67.0
t,2015-11-28 06:45:42,36.36747491,127.35213111,73.0
t,2015-11-28 06:46:02,36.3675682,127.35213796,74.0
t,2015-11-28 06:46:12,36.36759239,127.35213469,69.0
t,2015-11-28 06:46:22,36.36759256,127.35212521,69.0
t,2015-11-28 06:46:33,36.367606,127.35217626,71.0
t,2015-11-28 06:46:52,36.36758946,127.35217201,75.0
t,2015-11-28 06:47:02,36.36757702,127.35215311,75.0
t,2015-11-28 06:47:12,36.36756077,127.35215599,79.0
t,2015-11-28 06:47:23,36.36753613,127.35212398,75.0
t,2015-11-28 06:47:33,36.36752385,127.3521253,82.0
t,2015-11-28 06:47:53,36.36752231,127.35216467,85.0
t,2015-11-28 06:48:12,36.36750881,127.35217532,88.0
t,2015-11-28 06:48:22,36.36750729,127.35216933,89.0
t,2015-11-28 06:48:33,36.36756334,127.35214287,87.0
t,2015-11-28 06:48:43,36.36754952,127.35209937,87.0
t,2015-11-28 06:48:53,36.36757078,127.35208047,85.0
t,2015-11-28 06:49:03,36.36757097,127.35207959,85.0
t,2015-11-28 06:49:13,36.36757136,127.35207903,85.0
t,2015-11-28 06:49:24,36.3675716,127.35207863,85.0
t,2015-11-28 06:49:43,36.36757319,127.35207795,85.0
t,2015-11-28 06:50:03,36.36758463,127.3520703,84.0
t,2015-11-28 06:50:13,36.36758451,127.35207125,83.0
t,2015-11-28 06:50:23,36.36758614,127.35206877,84.0
t,2015-11-28 06:50:43,36.36758641,127.35206828,84.0
t,2015-11-28 06:51:02,36.36758626,127.3520683,84.0
t,2015-11-28 06:51:12,36.36758626,127.35206822,84.0
t,2015-11-28 06:51:23,36.36758583,127.35208663,85.0
t,2015-11-28 06:51:42,36.36760753,127.35208646,89.0
t,2015-11-28 06:51:52,36.36763412,127.35209571,85.0
t,2015-11-28 06:52:12,36.36763485,127.35209626,86.0
t,2015-11-28 06:52:23,36.36764651,127.3521413,84.0
t,2015-11-28 06:52:42,36.36763413,127.35213944,89.0
t,2015-11-28 06:52:52,36.3676294,127.35214038,91.0
t,2015-11-28 06:53:03,36.36762468,127.3521397,91.0
t,2015-11-28 06:53:23,36.36761194,127.35214817,82.0
t,2015-11-28 06:53:33,36.36761151,127.35215017,82.0
t,2015-11-28 06:57:15,36.367688,127.35211722,87.0
t,2015-11-28 06:57:32,36.36796188,127.35208209,79.0
t,2015-11-28 06:57:52,36.36817299,127.35216483,78.0
t,2015-11-28 06:58:12,36.36838979,127.35222063,81.0
t,2015-11-28 06:58:33,36.36857013,127.35228718,87.0
t,2015-11-28 06:58:52,36.36878006,127.35239263,85.0
t,2015-11-28 06:59:02,36.3688576,127.35242383,86.0
t,2015-11-28 06:59:12,36.36890753,127.35248044,90.0
t,2015-11-28 06:59:22,36.36895368,127.35252877,89.0
t,2015-11-28 06:59:32,36.36904312,127.35257389,96.0
t,2015-11-28 06:59:52,36.36917452,127.35273587,102.0
t,2015-11-28 07:00:02,36.36923289,127.35283643,106.0
t,2015-11-28 07:00:22,36.36940166,127.35296541,100.0
t,2015-11-28 07:00:32,36.36949738,127.35305143,100.0
t,2015-11-28 07:00:52,36.36968138,127.35310908,102.0
t,2015-11-28 07:01:02,36.36975846,127.35307593,90.0
t,2015-11-28 07:01:12,36.36987357,127.35306063,85.0
t,2015-11-28 07:01:22,36.36999698,127.3531051,91.0
t,2015-11-28 07:01:32,36.37012427,127.35312106,84.0
t,2015-11-28 07:01:52,36.37024399,127.35314347,84.0
t,2015-11-28 07:02:02,36.37031088,127.35315094,80.0
t,2015-11-28 07:02:23,36.37046104,127.35313611,79.0
t,2015-11-28 07:02:42,36.37063058,127.35324825,83.0
t,2015-11-28 07:03:02,36.37067173,127.35351628,89.0
t,2015-11-28 07:03:12,36.37062976,127.35361187,87.0
t,2015-11-28 07:03:22,36.37063768,127.35372873,86.0
t,2015-11-28 07:03:32,36.37060937,127.35382162,87.0
t,2015-11-28 07:03:42,36.37059363,127.35389988,86.0
t,2015-11-28 07:03:52,36.37063028,127.35399191,81.0
t,2015-11-28 07:04:02,36.37060867,127.35408552,80.0
t,2015-11-28 07:04:12,36.37059967,127.35418455,76.0
t,2015-11-28 07:04:22,36.3705717,127.35430549,77.0
t,2015-11-28 07:04:42,36.37047408,127.35448714,76.0
t,2015-11-28 07:04:52,36.3704792,127.35455858,79.0
t,2015-11-28 07:05:02,36.37054076,127.35461349,74.0
t,2015-11-28 07:05:12,36.37060116,127.35477493,74.0
t,2015-11-28 07:05:22,36.37057931,127.35496351,70.0
t,2015-11-28 07:05:42,36.37059863,127.35524,79.0
t,2015-11-28 07:06:02,36.37073978,127.35525033,80.0
t,2015-11-28 07:06:12,36.3707672,127.35526888,82.0
t,2015-11-28 07:06:22,36.37077895,127.35538023,78.0
t,2015-11-28 07:06:32,36.37077917,127.35549619,76.0
t,2015-11-28 07:06:42,36.37078446,127.35559733,75.0
t,2015-11-28 07:06:52,36.37077649,127.3556954,75.0
t,2015-11-28 07:07:02,36.37077254,127.35582911,76.0
t,2015-11-28 07:07:12,36.37080272,127.35596282,83.0
t,2015-11-28 07:07:32,36.37086315,127.35612625,88.0
t,2015-11-28 07:07:42,36.37096542,127.35609036,84.0
t,2015-11-28 07:07:52,36.37108625,127.35604766,82.0
t,2015-11-28 07:08:12,36.37127655,127.35607355,81.0
t,2015-11-28 07:08:24,36.37139363,127.35616857,83.0
t,2015-11-28 07:08:42,36.37143432,127.3564033,77.0
t,2015-11-28 07:09:01,36.37144026,127.35656862,79.0
t,2015-11-28 07:09:11,36.37147087,127.35666917,79.0
t,2015-11-28 07:09:21,36.37151125,127.35672925,83.0
t,2015-11-28 07:09:31,36.37153789,127.35683901,75.0
t,2015-11-28 07:09:41,36.37157647,127.35693438,78.0
t,2015-11-28 07:09:51,36.37162728,127.3570164,79.0
t,2015-11-28 07:10:01,36.37165313,127.35712849,79.0
t,2015-11-28 07:10:11,36.3716052,127.35725117,80.0
t,2015-11-28 07:10:21,36.37156818,127.35736782,78.0
t,2015-11-28 07:10:31,36.37152371,127.35746142,76.0
t,2015-11-28 07:10:41,36.37149872,127.35755699,77.0
t,2015-11-28 07:10:51,36.37147697,127.35764398,78.0
t,2015-11-28 07:11:01,36.37145081,127.3577399,77.0
t,2015-11-28 07:11:11,36.37145453,127.35784081,77.0
t,2015-11-28 07:11:21,36.37142762,127.35794623,82.0
t,2015-11-28 07:11:31,36.37140523,127.3580534,81.0
t,2015-11-28 07:11:41,36.37136259,127.35816359,80.0
t,2015-11-28 07:11:51,36.37134501,127.358268,75.0
t,2015-11-28 07:12:01,36.37132279,127.35836257,72.0
t,2015-11-28 07:12:21,36.37130981,127.35853944,71.0
t,2015-11-28 07:12:31,36.37128698,127.35863828,70.0
t,2015-11-28 07:12:41,36.37125628,127.35873434,72.0
t,2015-11-28 07:12:51,36.3711881,127.35883541,73.0
t,2015-11-28 07:13:01,36.37112967,127.35894037,75.0
t,2015-11-28 07:13:11,36.37106252,127.35903952,74.0
t,2015-11-28 07:13:21,36.37100279,127.35913553,74.0
t,2015-11-28 07:13:31,36.37095571,127.3592328,73.0
t,2015-11-28 07:13:41,36.37088969,127.35931173,71.0
t,2015-11-28 07:13:51,36.37080945,127.35938621,69.0
t,2015-11-28 07:14:02,36.37073582,127.35946744,66.0
t,2015-11-28 07:14:21,36.370603,127.35961014,62.0
t,2015-11-28 07:14:31,36.37054689,127.35969803,62.0
t,2015-11-28 07:14:41,36.3705011,127.35979974,61.0
t,2015-11-28 07:14:51,36.37044404,127.35988381,63.0
t,2015-11-28 07:15:01,36.3703938,127.35998005,62.0
t,2015-11-28 07:15:21,36.37025789,127.36015082,64.0
t,2015-11-28 07:15:31,36.37020297,127.36023434,63.0
t,2015-11-28 07:15:41,36.37014281,127.36031714,63.0
t,2015-11-28 07:15:51,36.37008967,127.36040149,63.0
t,2015-11-28 07:16:01,36.37002397,127.36047824,64.0
t,2015-11-28 07:16:11,36.36995021,127.36055597,66.0
t,2015-11-28 07:16:21,36.36987074,127.36062424,66.0
t,2015-11-28 07:16:31,36.36980603,127.3606936,67.0
t,2015-11-28 07:16:41,36.3697569,127.36074722,68.0
t,2015-11-28 07:16:51,36.36974763,127.36081226,67.0
t,2015-11-28 07:17:01,36.36978597,127.3609355,68.0
t,2015-11-28 07:17:11,36.36971278,127.36101341,68.0
t,2015-11-28 07:17:21,36.36964446,127.36109248,69.0
t,2015-11-28 07:17:41,36.36950518,127.36123047,68.0
t,2015-11-28 07:17:51,36.36942882,127.3612871,69.0
t,2015-11-28 07:18:01,36.36935922,127.36134453,69.0
t,2015-11-28 07:18:11,36.36928541,127.36140091,68.0
t,2015-11-28 07:18:21,36.36920973,127.36145658,68.0
t,2015-11-28 07:18:31,36.3691606,127.36152995,68.0
t,2015-11-28 07:18:41,36.36916716,127.36162069,68.0
t,2015-11-28 07:18:51,36.36920034,127.36171102,67.0
t,2015-11-28 07:19:01,36.36924015,127.36179645,68.0
t,2015-11-28 07:19:11,36.3692832,127.36187614,68.0
t,2015-11-28 07:19:21,36.36931623,127.3619524,67.0
t,2015-11-28 07:19:31,36.36936132,127.36203067,68.0
t,2015-11-28 07:19:41,36.36940426,127.36212936,71.0
t,2015-11-28 07:19:51,36.36938296,127.36224212,70.0
t,2015-11-28 07:20:01,36.36934101,127.3623591,68.0
t,2015-11-28 07:20:11,36.36928798,127.36245308,66.0
t,2015-11-28 07:20:21,36.36922665,127.36252492,68.0
t,2015-11-28 07:20:31,36.36926637,127.36259361,69.0
t,2015-11-28 07:20:41,36.36931275,127.36266943,69.0
t,2015-11-28 07:20:51,36.36937526,127.36273861,69.0
t,2015-11-28 07:21:01,36.36940286,127.36283779,71.0
t,2015-11-28 07:21:11,36.36939604,127.36292418,78.0
t,2015-11-28 07:21:21,36.36931525,127.36300615,78.0
t,2015-11-28 07:21:31,36.3692538,127.36310124,78.0
t,2015-11-28 07:21:41,36.36925559,127.36317237,80.0
t,2015-11-28 07:21:51,36.36926214,127.36322192,78.0
t,2015-11-28 07:22:01,36.36924782,127.3632382,78.0
t,2015-11-28 07:22:12,36.36923739,127.36321994,79.0
t,2015-11-28 07:22:23,36.36923718,127.36321981,79.0
t,2015-11-28 07:22:34,36.36923765,127.36321965,79.0
t,2015-11-28 07:22:44,36.36923761,127.36321948,79.0
t,2015-11-28 07:23:37,36.3692379,127.36321995,79.0
t,2015-11-28 07:23:56,36.36868248,127.36381051,71.0
t,2015-11-28 07:24:10,36.36883199,127.36371318,65.0
t,2015-11-28 07:24:29,36.36900493,127.36371721,71.0
t,2015-11-28 07:24:39,36.36898761,127.36373073,71.0
t,2015-11-28 07:24:49,36.36894969,127.36374188,68.0
t,2015-11-28 07:25:00,36.3695315,127.36323388,68.0
t,2015-11-28 07:25:11,36.3693396,127.36337909,64.0
t,2015-11-28 07:25:30,36.36939584,127.36340447,69.0
t,2015-11-28 07:25:49,36.36940168,127.36330554,57.0
t,2015-11-28 07:25:59,36.36938859,127.36329691,59.0
t,2015-11-28 07:26:10,36.3693872,127.36329103,60.0
t,2015-11-28 07:26:20,36.36938596,127.36329163,60.0
t,2015-11-28 07:26:30,36.36937427,127.36329631,60.0
t,2015-11-28 07:26:40,36.36937115,127.36329793,60.0
t,2015-11-28 07:26:50,36.36937122,127.36329854,59.0
t,2015-11-28 07:27:01,36.36936779,127.36330023,59.0
t,2015-11-28 10:27:40,36.3692192,127.36328037,87.0
t,2015-11-28 10:27:54,36.36903156,127.36330304,77.0
t,2015-11-28 10:28:12,36.36892661,127.36331968,76.0
t,2015-11-28 10:28:22,36.36888752,127.36337661,82.0
t,2015-11-28 10:28:32,36.36881126,127.36344657,85.0
t,2015-11-28 10:28:51,36.36866246,127.36354458,80.0
t,2015-11-28 10:29:02,36.36861552,127.36363465,81.0
t,2015-11-28 10:29:14,36.36869371,127.36372254,80.0
t,2015-11-28 10:29:25,36.36887868,127.36386204,82.0
t,2015-11-28 10:29:43,36.36877833,127.36414742,101.0
t,2015-11-28 10:30:01,36.36861464,127.36434281,99.0
t,2015-11-28 10:30:21,36.36842299,127.36433867,90.0
t,2015-11-28 10:30:31,36.36834054,127.3643055,96.0
t,2015-11-28 10:30:41,36.36831022,127.36435125,94.0
t,2015-11-28 10:30:52,36.36831224,127.36437345,92.0
t,2015-11-28 10:31:02,36.36831203,127.36437539,92.0
t,2015-11-28 10:31:12,36.3682945,127.36437527,88.0
t,2015-11-28 10:31:22,36.36829967,127.36441571,90.0
t,2015-11-28 10:31:41,36.36836918,127.36460029,91.0
t,2015-11-28 10:31:53,36.3681872,127.36500354,85.0
t,2015-11-28 10:32:04,36.36817081,127.3650218,88.0
t,2015-11-28 10:33:18,36.36815679,127.36504385,86.0
t,2015-11-28 10:33:29,36.36807987,127.36570823,78.0
t,2015-11-28 10:33:39,36.36810704,127.36584136,82.0
t,2015-11-28 10:33:50,36.36809996,127.36592151,80.0
t,2015-11-28 10:34:10,36.36810628,127.36594925,81.0
t,2015-11-28 10:34:22,36.36810836,127.36595061,81.0
t,2015-11-28 10:34:40,36.36810887,127.36595157,81.0
t,2015-11-28 10:34:50,36.36810903,127.36595181,81.0
t,2015-11-28 10:35:00,36.36810909,127.36595209,81.0
t,2015-11-28 10:35:20,36.36810937,127.36595231,81.0
t,2015-11-28 10:35:30,36.36810954,127.36595224,81.0
t,2015-11-28 10:35:40,36.36810956,127.36595247,81.0
t,2015-11-28 10:35:50,36.36810969,127.36595277,81.0
t,2015-11-28 10:36:00,36.36810969,127.36595294,81.0
t,2015-11-28 10:36:10,36.36810985,127.36595287,81.0
t,2015-11-28 10:36:21,36.36810984,127.36595302,81.0
t,2015-11-28 10:36:40,36.36810989,127.36595332,81.0
t,2015-11-28 10:36:50,36.36810988,127.36595328,81.0
t,2015-11-28 10:37:00,36.3681099,127.36595361,81.0
t,2015-11-28 10:37:10,36.36810991,127.36595371,81.0
t,2015-11-28 10:37:22,36.36810985,127.36595361,81.0